measured.: nma
…
r = r, # col w binomial “success” trials
 n = n, # col w binomial total trials

— Charles T. Gray ⚔ ((???)) September 2, 2020

Most of these objects are empty. The first item is an updated version of the original data, and extractions of the studies and treatments are also provided. Classes, ipd, and contrast do not appear to relevant to this network.

# output everything contained in nma_data class bcg_net object
stuff_in_net %>% 
    map(.f = function(thing){bcg_net %>% pluck(thing)}) %>% 
    set_names(stuff_in_net)

$agd_arm
# A tibble: 26 x 9
   .study .trt        .r    .n .sample_size  trtn latitude     r     n
   <fct>  <fct>    <dbl> <dbl>        <dbl> <dbl>    <dbl> <dbl> <dbl>
 1 1      Unvacci…    11   139          139     1       44    11   139
 2 1      Vaccina…     4   123          123     2       44     4   123
 3 2      Unvacci…    29   303          303     1       55    29   303
 4 2      Vaccina…     6   306          306     2       55     6   306
 5 3      Unvacci…    11   220          220     1       42    11   220
 6 3      Vaccina…     3   231          231     2       42     3   231
 7 4      Unvacci…   248 12867        12867     1       52   248 12867
 8 4      Vaccina…    62 13598        13598     2       52    62 13598
 9 5      Unvacci…    47  5808         5808     1       13    47  5808
10 5      Vaccina…    33  5069         5069     2       13    33  5069
# … with 16 more rows
…
